992
992
992
992
992
992
992
-216 -216 -216 -216 96
-40 -40 -40 -40 -40 -40 -40 -40 -40 -40 -40 -40 416
-296 296 -296 80
992
72 -72 -72 -72 -72 -72 -72 432
992
-224 -224 -224 -224 64
-304 304 -304 56
-416 -416 144
992
-64 -64 -64 -64 -64 -64 -64 -64 416
992
-400 -400 176
