-32 -40 16 -72 48 -56 680
-24 -32 -24 -56 824
-72 -48 -64 -64 712
-48 48 -72 -72 -40 672
-48 8 -24 8 -32 -24 800
48 -48 -40 -32 -32 752
-64 40 -24 -72 -40 712
-72 -32 64 -24 -72 688
-48 64 -56 -72 -56 656
-40 -24 16 -40 48 -48 728
-24 -24 -64 56 -64 720
-24 -32 72 -56 -56 712
-56 32 -56 40 -72 -56 632
-48 -40 32 -72 72 -64 616
32 -32 24 -64 -56 -40 696
-48 40 -32 -72 -48 712
64 -40 -24 -64 -48 712
40 -32 24 -32 72 -64 -56 616
-72 -56 -48 -72 712
-24 -24 40 -40 -48 776
