-40 944
16 -32 928
128 -64 784
-56 -48 -40 824
992
24 -48 904
32 -56 -64 816
-32 8 -16 -88 40 -96 664
64 -24 -48 -128 696
-40 144 -24 760
32 -160 784
112 -88 80 -184 496
992
992
992
992
80 -56 840
48 -56 72 -80 -96 600
64 -72 840
32 -80 88 -96 -112 544
